%YAML 1.1
%TAG !u! tag:unity3d.com,2011:
--- !u!74 &7400000
AnimationClip:
  m_ObjectHideFlags: 0
  m_PrefabParentObject: {fileID: 0}
  m_PrefabInternal: {fileID: 0}
  m_Name: LevelCat
  serializedVersion: 6
  m_Legacy: 0
  m_Compressed: 0
  m_UseHighQualityCurve: 1
  m_RotationCurves: []
  m_CompressedRotationCurves: []
  m_EulerCurves: []
  m_PositionCurves: []
  m_ScaleCurves: []
  m_FloatCurves: []
  m_PPtrCurves:
  - curve:
    - time: 0
      value: {fileID: 21300000, guid: a43cf80168b8b1e49a1c1e61d959dc75, type: 3}
    - time: 0.083333336
      value: {fileID: 21300000, guid: 93b375e94ae57164895a3ac7090e2e9e, type: 3}
    - time: 0.16666667
      value: {fileID: 21300000, guid: 41699ce9ec0a4a0449707e1169888207, type: 3}
    - time: 0.25
      value: {fileID: 21300000, guid: 47b07926a40a5b74e807a38612307011, type: 3}
    - time: 0.33333334
      value: {fileID: 21300000, guid: 572f8af5e38325449a58e2365e73564a, type: 3}
    - time: 0.41666666
      value: {fileID: 21300000, guid: 33ce04f1c8b414c4a875d1425df31aee, type: 3}
    - time: 0.5
      value: {fileID: 21300000, guid: c250e81c6d1151e4cba9df0edfe82047, type: 3}
    - time: 0.5833333
      value: {fileID: 21300000, guid: 096141b325f5a2a4da58bc0ea6cde616, type: 3}
    - time: 0.6666667
      value: {fileID: 21300000, guid: b4c38b50d30b672429bce217de1ba52b, type: 3}
    - time: 0.75
      value: {fileID: 21300000, guid: 13ccc7607326d6d42866bd49031dba8b, type: 3}
    - time: 0.8333333
      value: {fileID: 21300000, guid: a5ca8a2cf03343b4991eb49f84da0ed4, type: 3}
    - time: 0.9166667
      value: {fileID: 21300000, guid: 92fb7ce4562e6e34793359cf33c07f08, type: 3}
    attribute: m_Sprite
    path: 
    classID: 212
    script: {fileID: 0}
  m_SampleRate: 12
  m_WrapMode: 0
  m_Bounds:
    m_Center: {x: 0, y: 0, z: 0}
    m_Extent: {x: 0, y: 0, z: 0}
  m_ClipBindingConstant:
    genericBindings:
    - path: 0
      attribute: 0
      script: {fileID: 0}
      classID: 212
      customType: 23
      isPPtrCurve: 1
    pptrCurveMapping:
    - {fileID: 21300000, guid: a43cf80168b8b1e49a1c1e61d959dc75, type: 3}
    - {fileID: 21300000, guid: 93b375e94ae57164895a3ac7090e2e9e, type: 3}
    - {fileID: 21300000, guid: 41699ce9ec0a4a0449707e1169888207, type: 3}
    - {fileID: 21300000, guid: 47b07926a40a5b74e807a38612307011, type: 3}
    - {fileID: 21300000, guid: 572f8af5e38325449a58e2365e73564a, type: 3}
    - {fileID: 21300000, guid: 33ce04f1c8b414c4a875d1425df31aee, type: 3}
    - {fileID: 21300000, guid: c250e81c6d1151e4cba9df0edfe82047, type: 3}
    - {fileID: 21300000, guid: 096141b325f5a2a4da58bc0ea6cde616, type: 3}
    - {fileID: 21300000, guid: b4c38b50d30b672429bce217de1ba52b, type: 3}
    - {fileID: 21300000, guid: 13ccc7607326d6d42866bd49031dba8b, type: 3}
    - {fileID: 21300000, guid: a5ca8a2cf03343b4991eb49f84da0ed4, type: 3}
    - {fileID: 21300000, guid: 92fb7ce4562e6e34793359cf33c07f08, type: 3}
  m_AnimationClipSettings:
    serializedVersion: 2
    m_AdditiveReferencePoseClip: {fileID: 0}
    m_AdditiveReferencePoseTime: 0
    m_StartTime: 0
    m_StopTime: 1
    m_OrientationOffsetY: 0
    m_Level: 0
    m_CycleOffset: 0
    m_HasAdditiveReferencePose: 0
    m_LoopTime: 1
    m_LoopBlend: 0
    m_LoopBlendOrientation: 0
    m_LoopBlendPositionY: 0
    m_LoopBlendPositionXZ: 0
    m_KeepOriginalOrientation: 0
    m_KeepOriginalPositionY: 1
    m_KeepOriginalPositionXZ: 0
    m_HeightFromFeet: 0
    m_Mirror: 0
  m_EditorCurves: []
  m_EulerEditorCurves: []
  m_HasGenericRootTransform: 0
  m_HasMotionFloatCurves: 0
  m_GenerateMotionCurves: 0
  m_IsEmpty: 0
  m_Events: []
