%YAML 1.1
%TAG !u! tag:unity3d.com,2011:
--- !u!74 &7400000
AnimationClip:
  m_ObjectHideFlags: 0
  m_PrefabParentObject: {fileID: 0}
  m_PrefabInternal: {fileID: 0}
  m_Name: LevelCatDie
  serializedVersion: 6
  m_Legacy: 0
  m_Compressed: 0
  m_UseHighQualityCurve: 1
  m_RotationCurves: []
  m_CompressedRotationCurves: []
  m_EulerCurves: []
  m_PositionCurves: []
  m_ScaleCurves: []
  m_FloatCurves: []
  m_PPtrCurves:
  - curve:
    - time: 0
      value: {fileID: 21300000, guid: af944f4aeb3dfbc4bbc85cd070d18ef6, type: 3}
    - time: 0.0625
      value: {fileID: 21300000, guid: fdbdfaadddf7a4c49b8bed85608ec130, type: 3}
    - time: 0.125
      value: {fileID: 21300000, guid: 8e0efe5e54ec31044aa8a92da8e3df2a, type: 3}
    - time: 0.1875
      value: {fileID: 21300000, guid: 169d0696f6aeaa449a8bdec5006fc7ad, type: 3}
    - time: 0.25
      value: {fileID: 21300000, guid: 469a8e1eac4d67842a49d6747ad4a31d, type: 3}
    - time: 0.3125
      value: {fileID: 21300000, guid: 55ff40d7324edbc4fb2918062f500c9c, type: 3}
    - time: 0.375
      value: {fileID: 21300000, guid: 5a61115a05a812446930edb5ebabf545, type: 3}
    - time: 0.4375
      value: {fileID: 21300000, guid: 8932acc1e1cadf74599f6964efbfb008, type: 3}
    - time: 0.5
      value: {fileID: 21300000, guid: 95b5563c19c895141890d637c5d42489, type: 3}
    - time: 0.5625
      value: {fileID: 21300000, guid: 1fb041d427775064e825e862fbd655bb, type: 3}
    - time: 0.625
      value: {fileID: 21300000, guid: 48c49c4fd39b0dc48a24742d2ad93fff, type: 3}
    - time: 0.6875
      value: {fileID: 21300000, guid: 065a5481b16120849af0f40b8882af56, type: 3}
    - time: 0.75
      value: {fileID: 21300000, guid: 56f3529a1a5ec944298e794d08a05e1d, type: 3}
    - time: 0.8125
      value: {fileID: 21300000, guid: 4eace638b28eecf4e995b0e43f706984, type: 3}
    - time: 0.875
      value: {fileID: 21300000, guid: 041b0b821f06ab0458bec2dc5d2a122f, type: 3}
    attribute: m_Sprite
    path: 
    classID: 212
    script: {fileID: 0}
  m_SampleRate: 16
  m_WrapMode: 0
  m_Bounds:
    m_Center: {x: 0, y: 0, z: 0}
    m_Extent: {x: 0, y: 0, z: 0}
  m_ClipBindingConstant:
    genericBindings:
    - path: 0
      attribute: 0
      script: {fileID: 0}
      classID: 212
      customType: 23
      isPPtrCurve: 1
    pptrCurveMapping:
    - {fileID: 21300000, guid: af944f4aeb3dfbc4bbc85cd070d18ef6, type: 3}
    - {fileID: 21300000, guid: fdbdfaadddf7a4c49b8bed85608ec130, type: 3}
    - {fileID: 21300000, guid: 8e0efe5e54ec31044aa8a92da8e3df2a, type: 3}
    - {fileID: 21300000, guid: 169d0696f6aeaa449a8bdec5006fc7ad, type: 3}
    - {fileID: 21300000, guid: 469a8e1eac4d67842a49d6747ad4a31d, type: 3}
    - {fileID: 21300000, guid: 55ff40d7324edbc4fb2918062f500c9c, type: 3}
    - {fileID: 21300000, guid: 5a61115a05a812446930edb5ebabf545, type: 3}
    - {fileID: 21300000, guid: 8932acc1e1cadf74599f6964efbfb008, type: 3}
    - {fileID: 21300000, guid: 95b5563c19c895141890d637c5d42489, type: 3}
    - {fileID: 21300000, guid: 1fb041d427775064e825e862fbd655bb, type: 3}
    - {fileID: 21300000, guid: 48c49c4fd39b0dc48a24742d2ad93fff, type: 3}
    - {fileID: 21300000, guid: 065a5481b16120849af0f40b8882af56, type: 3}
    - {fileID: 21300000, guid: 56f3529a1a5ec944298e794d08a05e1d, type: 3}
    - {fileID: 21300000, guid: 4eace638b28eecf4e995b0e43f706984, type: 3}
    - {fileID: 21300000, guid: 041b0b821f06ab0458bec2dc5d2a122f, type: 3}
  m_AnimationClipSettings:
    serializedVersion: 2
    m_AdditiveReferencePoseClip: {fileID: 0}
    m_AdditiveReferencePoseTime: 0
    m_StartTime: 0
    m_StopTime: 1.875
    m_OrientationOffsetY: 0
    m_Level: 0
    m_CycleOffset: 0
    m_HasAdditiveReferencePose: 0
    m_LoopTime: 1
    m_LoopBlend: 0
    m_LoopBlendOrientation: 0
    m_LoopBlendPositionY: 0
    m_LoopBlendPositionXZ: 0
    m_KeepOriginalOrientation: 0
    m_KeepOriginalPositionY: 1
    m_KeepOriginalPositionXZ: 0
    m_HeightFromFeet: 0
    m_Mirror: 0
  m_EditorCurves: []
  m_EulerEditorCurves: []
  m_HasGenericRootTransform: 0
  m_HasMotionFloatCurves: 0
  m_GenerateMotionCurves: 0
  m_IsEmpty: 0
  m_Events: []
