%YAML 1.1
%TAG !u! tag:unity3d.com,2011:
--- !u!74 &7400000
AnimationClip:
  m_ObjectHideFlags: 0
  m_PrefabParentObject: {fileID: 0}
  m_PrefabInternal: {fileID: 0}
  m_Name: Wheel_2_Anim
  serializedVersion: 6
  m_Legacy: 0
  m_Compressed: 0
  m_UseHighQualityCurve: 1
  m_RotationCurves: []
  m_CompressedRotationCurves: []
  m_EulerCurves: []
  m_PositionCurves: []
  m_ScaleCurves: []
  m_FloatCurves: []
  m_PPtrCurves:
  - curve:
    - time: 0
      value: {fileID: 21300000, guid: 7e37fde4def10cc4c858ffe4ce39f850, type: 3}
    - time: 0.083333336
      value: {fileID: 21300000, guid: 0043b669ad101be4fad6f779374b0bf2, type: 3}
    - time: 0.16666667
      value: {fileID: 21300000, guid: acfb4d684ea4e794eb85fe873db44ad5, type: 3}
    - time: 0.25
      value: {fileID: 21300000, guid: 223afa0c9eeaa9d40a1364ec26a2cfaf, type: 3}
    - time: 0.33333334
      value: {fileID: 21300000, guid: 5fda6a1c5df2cad4582274751d274ba4, type: 3}
    - time: 0.41666666
      value: {fileID: 21300000, guid: 039664586a83db84299d52c7bbd4e4c9, type: 3}
    - time: 0.5
      value: {fileID: 21300000, guid: 272fd1f5f52cb5341adc837c9f2cd562, type: 3}
    - time: 0.5833333
      value: {fileID: 21300000, guid: 36acba4ecc3a81244b3d5257e8a2d76f, type: 3}
    - time: 0.6666667
      value: {fileID: 21300000, guid: f79fb3675654224449a5da9832f457b6, type: 3}
    - time: 0.75
      value: {fileID: 21300000, guid: 5cf62d95b43af704ca6fd0fc76b9485b, type: 3}
    - time: 0.8333333
      value: {fileID: 21300000, guid: f6bdf74d813afdd4ebf03f6845de1e37, type: 3}
    - time: 0.9166667
      value: {fileID: 21300000, guid: b7aaabc980b40d64e83e965696091758, type: 3}
    attribute: m_Sprite
    path: 
    classID: 212
    script: {fileID: 0}
  m_SampleRate: 12
  m_WrapMode: 0
  m_Bounds:
    m_Center: {x: 0, y: 0, z: 0}
    m_Extent: {x: 0, y: 0, z: 0}
  m_ClipBindingConstant:
    genericBindings:
    - path: 0
      attribute: 0
      script: {fileID: 0}
      classID: 212
      customType: 23
      isPPtrCurve: 1
    pptrCurveMapping:
    - {fileID: 21300000, guid: 7e37fde4def10cc4c858ffe4ce39f850, type: 3}
    - {fileID: 21300000, guid: 0043b669ad101be4fad6f779374b0bf2, type: 3}
    - {fileID: 21300000, guid: acfb4d684ea4e794eb85fe873db44ad5, type: 3}
    - {fileID: 21300000, guid: 223afa0c9eeaa9d40a1364ec26a2cfaf, type: 3}
    - {fileID: 21300000, guid: 5fda6a1c5df2cad4582274751d274ba4, type: 3}
    - {fileID: 21300000, guid: 039664586a83db84299d52c7bbd4e4c9, type: 3}
    - {fileID: 21300000, guid: 272fd1f5f52cb5341adc837c9f2cd562, type: 3}
    - {fileID: 21300000, guid: 36acba4ecc3a81244b3d5257e8a2d76f, type: 3}
    - {fileID: 21300000, guid: f79fb3675654224449a5da9832f457b6, type: 3}
    - {fileID: 21300000, guid: 5cf62d95b43af704ca6fd0fc76b9485b, type: 3}
    - {fileID: 21300000, guid: f6bdf74d813afdd4ebf03f6845de1e37, type: 3}
    - {fileID: 21300000, guid: b7aaabc980b40d64e83e965696091758, type: 3}
  m_AnimationClipSettings:
    serializedVersion: 2
    m_AdditiveReferencePoseClip: {fileID: 0}
    m_AdditiveReferencePoseTime: 0
    m_StartTime: 0
    m_StopTime: 1
    m_OrientationOffsetY: 0
    m_Level: 0
    m_CycleOffset: 0
    m_HasAdditiveReferencePose: 0
    m_LoopTime: 1
    m_LoopBlend: 0
    m_LoopBlendOrientation: 0
    m_LoopBlendPositionY: 0
    m_LoopBlendPositionXZ: 0
    m_KeepOriginalOrientation: 0
    m_KeepOriginalPositionY: 1
    m_KeepOriginalPositionXZ: 0
    m_HeightFromFeet: 0
    m_Mirror: 0
  m_EditorCurves: []
  m_EulerEditorCurves: []
  m_HasGenericRootTransform: 0
  m_HasMotionFloatCurves: 0
  m_GenerateMotionCurves: 0
  m_IsEmpty: 0
  m_Events: []
