%YAML 1.1
%TAG !u! tag:unity3d.com,2011:
--- !u!74 &7400000
AnimationClip:
  m_ObjectHideFlags: 0
  m_PrefabParentObject: {fileID: 0}
  m_PrefabInternal: {fileID: 0}
  m_Name: Patrol_3
  serializedVersion: 6
  m_Legacy: 0
  m_Compressed: 0
  m_UseHighQualityCurve: 1
  m_RotationCurves: []
  m_CompressedRotationCurves: []
  m_EulerCurves: []
  m_PositionCurves: []
  m_ScaleCurves: []
  m_FloatCurves: []
  m_PPtrCurves:
  - curve:
    - time: 0
      value: {fileID: 21300000, guid: 0d99028a9d517c74199c159668abd9dd, type: 3}
    - time: 0.083333336
      value: {fileID: 21300000, guid: 664600aa945659549b487ef9a22d9cba, type: 3}
    - time: 0.16666667
      value: {fileID: 21300000, guid: 05805932e0eda3e4fa49ef583572c3cf, type: 3}
    - time: 0.25
      value: {fileID: 21300000, guid: 397ea43d444cc8044a5f5d12df921400, type: 3}
    - time: 0.33333334
      value: {fileID: 21300000, guid: 6324f7273c2974043a8419fdbed65854, type: 3}
    - time: 0.41666666
      value: {fileID: 21300000, guid: 38a1a7ac1abaa7a43a31dc53b8b0f33d, type: 3}
    attribute: m_Sprite
    path: 
    classID: 212
    script: {fileID: 0}
  m_SampleRate: 12
  m_WrapMode: 0
  m_Bounds:
    m_Center: {x: 0, y: 0, z: 0}
    m_Extent: {x: 0, y: 0, z: 0}
  m_ClipBindingConstant:
    genericBindings:
    - path: 0
      attribute: 0
      script: {fileID: 0}
      classID: 212
      customType: 23
      isPPtrCurve: 1
    pptrCurveMapping:
    - {fileID: 21300000, guid: 0d99028a9d517c74199c159668abd9dd, type: 3}
    - {fileID: 21300000, guid: 664600aa945659549b487ef9a22d9cba, type: 3}
    - {fileID: 21300000, guid: 05805932e0eda3e4fa49ef583572c3cf, type: 3}
    - {fileID: 21300000, guid: 397ea43d444cc8044a5f5d12df921400, type: 3}
    - {fileID: 21300000, guid: 6324f7273c2974043a8419fdbed65854, type: 3}
    - {fileID: 21300000, guid: 38a1a7ac1abaa7a43a31dc53b8b0f33d, type: 3}
  m_AnimationClipSettings:
    serializedVersion: 2
    m_AdditiveReferencePoseClip: {fileID: 0}
    m_AdditiveReferencePoseTime: 0
    m_StartTime: 0
    m_StopTime: 0.5
    m_OrientationOffsetY: 0
    m_Level: 0
    m_CycleOffset: 0
    m_HasAdditiveReferencePose: 0
    m_LoopTime: 1
    m_LoopBlend: 0
    m_LoopBlendOrientation: 0
    m_LoopBlendPositionY: 0
    m_LoopBlendPositionXZ: 0
    m_KeepOriginalOrientation: 0
    m_KeepOriginalPositionY: 1
    m_KeepOriginalPositionXZ: 0
    m_HeightFromFeet: 0
    m_Mirror: 0
  m_EditorCurves: []
  m_EulerEditorCurves: []
  m_HasGenericRootTransform: 0
  m_HasMotionFloatCurves: 0
  m_GenerateMotionCurves: 0
  m_IsEmpty: 0
  m_Events: []
